…
+ Data cleaning.
- For ease of comparison across languages, make the column names consistent
  in style with lowercase using underscore to separate words within a name.



load data and rename columns

```julia
julia> @time dat = CSV.read("nyc311_011523-012123_by022023.csv", DataFrame,
                      dateformat="m/d/y H:M:S p")
  0.355489 seconds (1.61 M allocations: 115.699 MiB)
54469×41 DataFrame
   Row │ Unique Key  Created Date         Closed Date          Agency   Agency ⋯
       │ Int64       DateTime             DateTime?            String7  String ⋯
───────┼────────────────────────────────────────────────────────────────────────
     1 │   56532399  2023-01-15T00:00:00  2023-01-17T00:00:01  DOHMH    Depart ⋯
     2 │   56533302  2023-01-15T00:00:00  2023-01-23T00:00:01  DOHMH    Depart
     3 │   56533451  2023-01-15T00:00:00  2023-01-17T09:34:08  DOHMH    Depart
     4 │   56536021  2023-01-15T00:00:00  2023-01-17T09:48:19  DOHMH    Depart
     5 │   56538004  2023-01-15T00:00:00  2023-01-23T15:08:02  DOHMH    Depart ⋯
     6 │   56524984  2023-01-15T00:00:18  2023-01-15T02:37:30  NYPD     New Yo
     7 │   56526790  2023-01-15T00:00:21  2023-01-15T01:54:24  NYPD     New Yo
     8 │   56525034  2023-01-15T00:00:50  2023-01-15T01:09:56  NYPD     New Yo
   ⋮   │     ⋮                ⋮                    ⋮              ⋮            ⋱
 54463 │   56591186  2023-01-21T23:59:12  2023-01-22T06:41:47  NYPD     New Yo ⋯
 54464 │   56587053  2023-01-21T23:59:24  2023-01-22T06:24:40  NYPD     New Yo
 54465 │   56590382  2023-01-22T00:00:00  2023-01-22T04:29:17  NYPD     New Yo
 54466 │   56591502  2023-01-22T00:00:00  2023-01-23T10:03:08  DOHMH    Depart
 54467 │   56592422  2023-01-22T00:00:00  2023-01-23T10:05:39  DOHMH    Depart ⋯
 54468 │   56594948  2023-01-22T00:00:00  2023-02-01T00:00:01  DOHMH    Depart
 54469 │   56597360  2023-01-22T00:00:00  2023-01-23T10:02:46  DOHMH    Depart
                                               37 columns and 54454 rows omitted

julia> @time rename!(x -> lowercase(replace(x, " " => "_")), dat)
  0.034048 seconds (28.05 k allocations: 1.861 MiB)
54469×41 DataFrame
   Row │ unique_key  created_date         closed_date          agency   agency ⋯
       │ Int64       DateTime             DateTime?            String7  String ⋯
───────┼────────────────────────────────────────────────────────────────────────
     1 │   56532399  2023-01-15T00:00:00  2023-01-17T00:00:01  DOHMH    Depart ⋯
     2 │   56533302  2023-01-15T00:00:00  2023-01-23T00:00:01  DOHMH    Depart
     3 │   56533451  2023-01-15T00:00:00  2023-01-17T09:34:08  DOHMH    Depart
     4 │   56536021  2023-01-15T00:00:00  2023-01-17T09:48:19  DOHMH    Depart
     5 │   56538004  2023-01-15T00:00:00  2023-01-23T15:08:02  DOHMH    Depart ⋯
     6 │   56524984  2023-01-15T00:00:18  2023-01-15T02:37:30  NYPD     New Yo
     7 │   56526790  2023-01-15T00:00:21  2023-01-15T01:54:24  NYPD     New Yo
     8 │   56525034  2023-01-15T00:00:50  2023-01-15T01:09:56  NYPD     New Yo
   ⋮   │     ⋮                ⋮                    ⋮              ⋮            ⋱
 54463 │   56591186  2023-01-21T23:59:12  2023-01-22T06:41:47  NYPD     New Yo ⋯
 54464 │   56587053  2023-01-21T23:59:24  2023-01-22T06:24:40  NYPD     New Yo
 54465 │   56590382  2023-01-22T00:00:00  2023-01-22T04:29:17  NYPD     New Yo
 54466 │   56591502  2023-01-22T00:00:00  2023-01-23T10:03:08  DOHMH    Depart
 54467 │   56592422  2023-01-22T00:00:00  2023-01-23T10:05:39  DOHMH    Depart ⋯
 54468 │   56594948  2023-01-22T00:00:00  2023-02-01T00:00:01  DOHMH    Depart
 54469 │   56597360  2023-01-22T00:00:00  2023-01-23T10:02:46  DOHMH    Depart
                                               37 columns and 54454 rows omitted
```
…
julia> n, p = size(dat)
(54469, 41)

julia> ds = describe(dat)
41×7 DataFrame
 Row │ variable                  mean       min                                ⋯
     │ Symbol                    Union…     Any                                ⋯
─────┼──────────────────────────────────────────────────────────────────────────
   1 │ unique_key                5.65614e7  56524167                           ⋯
   2 │ created_date                         2023-01-15T00:00:00
   3 │ closed_date                          2022-01-12T10:06:00
   4 │ agency                               DCA
   5 │ agency_name                          Department of Buildings            ⋯
   6 │ complaint_type                       AHV Inspection Unit
   7 │ descriptor                           1 or 2
   8 │ location_type                        1-2 Family Dwelling
  ⋮  │            ⋮                  ⋮                      ⋮                  ⋱
  35 │ bridge_highway_name                  1                                  ⋯
  36 │ bridge_highway_direction             1 2 3 Downtown & Brooklyn
  37 │ road_ramp                            10 St & 4 Av NW corner
  38 │ bridge_highway_segment               14th Ave Bay 8 St (Exit 4) - Bay…
  39 │ latitude                  40.7367    40.4989                            ⋯
  40 │ longitude                 -73.9248   -74.2525
  41 │ location                             (40.498948846168354, -74.2443650…
                                                   4 columns and 26 rows omitted

julia> ds[!, [:variable, :nmissing]] # ds[!, [1, 6]]
41×2 DataFrame
 Row │ variable                  nmissing
     │ Symbol                    Int64
─────┼────────────────────────────────────
   1 │ unique_key                       0
   2 │ created_date                     0
   3 │ closed_date                   5176
   4 │ agency                           0
   5 │ agency_name                      0
   6 │ complaint_type                   0
   7 │ descriptor                     394
   8 │ location_type                 7386
  ⋮  │            ⋮                 ⋮
  35 │ bridge_highway_name          54126
  36 │ bridge_highway_direction     54290
  37 │ road_ramp                    54334
  38 │ bridge_highway_segment       54126
  39 │ latitude                       978
  40 │ longitude                      978
  41 │ location                       978
                           26 rows omitted
…
julia> mis_pattern = ds[!, [:variable, :mis_rate]]
41×2 DataFrame
 Row │ variable                  mis_rate
     │ Symbol                    Float64
─────┼──────────────────────────────────────
   1 │ unique_key                0.0
   2 │ created_date              0.0
   3 │ closed_date               0.0950265
   4 │ agency                    0.0
   5 │ agency_name               0.0
   6 │ complaint_type            0.0
   7 │ descriptor                0.00723347
   8 │ location_type             0.1356
  ⋮  │            ⋮                  ⋮
  35 │ bridge_highway_name       0.993703
  36 │ bridge_highway_direction  0.996714
  37 │ road_ramp                 0.997522
  38 │ bridge_highway_segment    0.993703
  39 │ latitude                  0.0179552
  40 │ longitude                 0.0179552
  41 │ location                  0.0179552
                             26 rows omitted
```


agency v.s. agency_name, location is redundant with latitude and longitude ...

```julia
julia> dat1 = dat[!, [1:4; 6:10; 25:26; 39:40]]
54469×13 DataFrame
   Row │ unique_key  created_date         closed_date          agency   compla ⋯
       │ Int64       DateTime             DateTime?            String7  String ⋯
───────┼────────────────────────────────────────────────────────────────────────
     1 │   56532399  2023-01-15T00:00:00  2023-01-17T00:00:01  DOHMH    Food P ⋯
     2 │   56533302  2023-01-15T00:00:00  2023-01-23T00:00:01  DOHMH    Food P
     3 │   56533451  2023-01-15T00:00:00  2023-01-17T09:34:08  DOHMH    Food P
     4 │   56536021  2023-01-15T00:00:00  2023-01-17T09:48:19  DOHMH    Food P
     5 │   56538004  2023-01-15T00:00:00  2023-01-23T15:08:02  DOHMH    Food P ⋯
     6 │   56524984  2023-01-15T00:00:18  2023-01-15T02:37:30  NYPD     Noise
     7 │   56526790  2023-01-15T00:00:21  2023-01-15T01:54:24  NYPD     Noise
     8 │   56525034  2023-01-15T00:00:50  2023-01-15T01:09:56  NYPD     Illega
   ⋮   │     ⋮                ⋮                    ⋮              ⋮            ⋱
 54463 │   56591186  2023-01-21T23:59:12  2023-01-22T06:41:47  NYPD     Illega ⋯
 54464 │   56587053  2023-01-21T23:59:24  2023-01-22T06:24:40  NYPD     Noise
 54465 │   56590382  2023-01-22T00:00:00  2023-01-22T04:29:17  NYPD     Noise
 54466 │   56591502  2023-01-22T00:00:00  2023-01-23T10:03:08  DOHMH    Food P
 54467 │   56592422  2023-01-22T00:00:00  2023-01-23T10:05:39  DOHMH    Food P ⋯
 54468 │   56594948  2023-01-22T00:00:00  2023-02-01T00:00:01  DOHMH    Food P
 54469 │   56597360  2023-01-22T00:00:00  2023-01-23T10:02:46  DOHMH    Food P
                                                9 columns and 54454 rows omitted
…
julia> dat2 = dat1[isless.(dat1.created_date, dat1.closed_date), :]
52576×13 DataFrame
   Row │ unique_key  created_date         closed_date          agency   compla ⋯
       │ Int64       DateTime             DateTime?            String7  String ⋯
───────┼────────────────────────────────────────────────────────────────────────
     1 │   56532399  2023-01-15T00:00:00  2023-01-17T00:00:01  DOHMH    Food P ⋯
     2 │   56533302  2023-01-15T00:00:00  2023-01-23T00:00:01  DOHMH    Food P
     3 │   56533451  2023-01-15T00:00:00  2023-01-17T09:34:08  DOHMH    Food P
     4 │   56536021  2023-01-15T00:00:00  2023-01-17T09:48:19  DOHMH    Food P
     5 │   56538004  2023-01-15T00:00:00  2023-01-23T15:08:02  DOHMH    Food P ⋯
     6 │   56524984  2023-01-15T00:00:18  2023-01-15T02:37:30  NYPD     Noise
     7 │   56526790  2023-01-15T00:00:21  2023-01-15T01:54:24  NYPD     Noise
     8 │   56525034  2023-01-15T00:00:50  2023-01-15T01:09:56  NYPD     Illega
   ⋮   │     ⋮                ⋮                    ⋮              ⋮            ⋱
 52570 │   56591186  2023-01-21T23:59:12  2023-01-22T06:41:47  NYPD     Illega ⋯
 52571 │   56587053  2023-01-21T23:59:24  2023-01-22T06:24:40  NYPD     Noise
 52572 │   56590382  2023-01-22T00:00:00  2023-01-22T04:29:17  NYPD     Noise
 52573 │   56591502  2023-01-22T00:00:00  2023-01-23T10:03:08  DOHMH    Food P
 52574 │   56592422  2023-01-22T00:00:00  2023-01-23T10:05:39  DOHMH    Food P ⋯
 52575 │   56594948  2023-01-22T00:00:00  2023-02-01T00:00:01  DOHMH    Food P
 52576 │   56597360  2023-01-22T00:00:00  2023-01-23T10:02:46  DOHMH    Food P
                                                9 columns and 52561 rows omitted
```
…
julia> if abspath(PROGRAM_FILE) == @__FILE__ # only run as the main script
           coordinates = DataFrame([c => Float64[] for c in ["lat", "lng"]])
           ads = dat2.incident_address[idx]
           for a in ads
               g = geocode(a * " New York", osm_key, "osm")
               push!(coordinates, g)
           end
           # CSV.write("coordinates.csv", coordinates)
           # Arrow.write("coordinates.arrow", coordinates)
           JDF.save("coordinates.jdf", coordinates)
       else
           coordinates = JDF.load("coordinates.jdf") |> DataFrame
       end
518×2 DataFrame
 Row │ lat      lng
     │ Float64  Float64
─────┼───────────────────
   1 │ 40.8699  -73.8928
   2 │ 40.8012  -73.9598
   3 │ 40.8269  -73.872
   4 │ 40.6853  -73.8468
   5 │ 40.8674  -73.8359
   6 │ 40.758   -73.7894
   7 │ 40.7846  -73.8283
   8 │ 40.6347  -74.1158
  ⋮  │    ⋮        ⋮
 512 │ 40.636   -74.0013
 513 │ 40.7672  -73.9862
 514 │ 40.6273  -74.1102
 515 │ 40.7672  -73.9862
 516 │ 40.6675  -73.7537
 517 │ 40.7277  -73.8491
 518 │ 40.6019  -73.7458
         503 rows omitted

julia> rename!(coordinates, [:latitude, :longitude])
518×2 DataFrame
 Row │ latitude  longitude
     │ Float64   Float64
─────┼─────────────────────
   1 │  40.8699   -73.8928
   2 │  40.8012   -73.9598
   3 │  40.8269   -73.872
   4 │  40.6853   -73.8468
   5 │  40.8674   -73.8359
   6 │  40.758    -73.7894
   7 │  40.7846   -73.8283
   8 │  40.6347   -74.1158
  ⋮  │    ⋮          ⋮
 512 │  40.636    -74.0013
 513 │  40.7672   -73.9862
 514 │  40.6273   -74.1102
 515 │  40.7672   -73.9862
 516 │  40.6675   -73.7537
 517 │  40.7277   -73.8491
 518 │  40.6019   -73.7458
           503 rows omitted

julia> dat2[idx, [:latitude, :longitude]] .= coordinates
518×2 SubDataFrame
 Row │ latitude  longitude
     │ Float64?  Float64?
─────┼─────────────────────
   1 │  40.8699   -73.8928
   2 │  40.8012   -73.9598
   3 │  40.8269   -73.872
   4 │  40.6853   -73.8468
   5 │  40.8674   -73.8359
   6 │  40.758    -73.7894
   7 │  40.7846   -73.8283
   8 │  40.6347   -74.1158
  ⋮  │    ⋮          ⋮
 512 │  40.636    -74.0013
 513 │  40.7672   -73.9862
 514 │  40.6273   -74.1102
 515 │  40.7672   -73.9862
 516 │  40.6675   -73.7537
 517 │  40.7277   -73.8491
 518 │  40.6019   -73.7458
           503 rows omitted
```
…
use a variable dictionary instead of additional columns



+ Data manipulation. Focus only on requests made to NYPD. 
- Create a a new variable `duration`, which represents the time period from
  the Created Date to Closed Date. Note that duration may be censored for
  some requests.

```julia
julia> dat3 = dat2[dat2.agency .== "NYPD", :]
21535×13 DataFrame
   Row │ unique_key  created_date         closed_date          agency   compla ⋯
       │ Int64       DateTime             DateTime?            String7  String ⋯
───────┼────────────────────────────────────────────────────────────────────────
     1 │   56524984  2023-01-15T00:00:18  2023-01-15T02:37:30  NYPD     Noise  ⋯
     2 │   56526790  2023-01-15T00:00:21  2023-01-15T01:54:24  NYPD     Noise
     3 │   56525034  2023-01-15T00:00:50  2023-01-15T01:09:56  NYPD     Illega
     4 │   56526234  2023-01-15T00:01:02  2023-01-15T05:47:41  NYPD     Noise
     5 │   56530817  2023-01-15T00:01:07  2023-01-15T01:01:26  NYPD     Noise  ⋯
     6 │   56530491  2023-01-15T00:01:12  2023-01-15T01:47:57  NYPD     Noise
     7 │   56527886  2023-01-15T00:01:22  2023-01-15T00:15:44  NYPD     Blocke
     8 │   56530623  2023-01-15T00:01:23  2023-01-15T01:07:30  NYPD     Illega
   ⋮   │     ⋮                ⋮                    ⋮              ⋮            ⋱
 21529 │   56588474  2023-01-21T23:58:36  2023-01-22T01:02:17  NYPD     Blocke ⋯
 21530 │   56590134  2023-01-21T23:58:43  2023-01-22T01:13:54  NYPD     Noise
 21531 │   56585700  2023-01-21T23:58:48  2023-01-22T01:30:36  NYPD     Noise
 21532 │   56588661  2023-01-21T23:59:10  2023-01-22T02:50:54  NYPD     Noise
 21533 │   56591186  2023-01-21T23:59:12  2023-01-22T06:41:47  NYPD     Illega ⋯
 21534 │   56587053  2023-01-21T23:59:24  2023-01-22T06:24:40  NYPD     Noise
 21535 │   56590382  2023-01-22T00:00:00  2023-01-22T04:29:17  NYPD     Noise
                                                9 columns and 21520 rows omitted
…
julia> filter!(:closed_date => !ismissing, dat3)
21534×13 DataFrame
   Row │ unique_key  created_date         closed_date          agency   compla ⋯
       │ Int64       DateTime             DateTime?            String7  String ⋯
───────┼────────────────────────────────────────────────────────────────────────
     1 │   56524984  2023-01-15T00:00:18  2023-01-15T02:37:30  NYPD     Noise  ⋯
     2 │   56526790  2023-01-15T00:00:21  2023-01-15T01:54:24  NYPD     Noise
     3 │   56525034  2023-01-15T00:00:50  2023-01-15T01:09:56  NYPD     Illega
     4 │   56526234  2023-01-15T00:01:02  2023-01-15T05:47:41  NYPD     Noise
     5 │   56530817  2023-01-15T00:01:07  2023-01-15T01:01:26  NYPD     Noise  ⋯
     6 │   56530491  2023-01-15T00:01:12  2023-01-15T01:47:57  NYPD     Noise
     7 │   56527886  2023-01-15T00:01:22  2023-01-15T00:15:44  NYPD     Blocke
     8 │   56530623  2023-01-15T00:01:23  2023-01-15T01:07:30  NYPD     Illega
   ⋮   │     ⋮                ⋮                    ⋮              ⋮            ⋱
 21528 │   56588474  2023-01-21T23:58:36  2023-01-22T01:02:17  NYPD     Blocke ⋯
 21529 │   56590134  2023-01-21T23:58:43  2023-01-22T01:13:54  NYPD     Noise
 21530 │   56585700  2023-01-21T23:58:48  2023-01-22T01:30:36  NYPD     Noise
 21531 │   56588661  2023-01-21T23:59:10  2023-01-22T02:50:54  NYPD     Noise
 21532 │   56591186  2023-01-21T23:59:12  2023-01-22T06:41:47  NYPD     Illega ⋯
 21533 │   56587053  2023-01-21T23:59:24  2023-01-22T06:24:40  NYPD     Noise
 21534 │   56590382  2023-01-22T00:00:00  2023-01-22T04:29:17  NYPD     Noise
                                                9 columns and 21519 rows omitted
…
```


- Basic information at the zipcode level such as population density, median
  home value, and median household income is available from the US
  Census. Convenient accesses are, for example, R package `zipcodeR` and
  Python package `uszipcode`; there seems to no Julia equivalent yet but
  Julia can call R or Python easily. Merge the zipcode level information
  with the NYPD requests data.

```julia
julia> dat4 = filter(:latitude => !ismissing, dat3)
21488×15 DataFrame
   Row │ unique_key  created_date         closed_date          agency   compla ⋯
       │ Int64       DateTime             DateTime?            String7  String ⋯
───────┼────────────────────────────────────────────────────────────────────────
     1 │   56524984  2023-01-15T00:00:18  2023-01-15T02:37:30  NYPD     Noise  ⋯
     2 │   56526790  2023-01-15T00:00:21  2023-01-15T01:54:24  NYPD     Noise
     3 │   56525034  2023-01-15T00:00:50  2023-01-15T01:09:56  NYPD     Illega
     4 │   56526234  2023-01-15T00:01:02  2023-01-15T05:47:41  NYPD     Noise
     5 │   56530817  2023-01-15T00:01:07  2023-01-15T01:01:26  NYPD     Noise  ⋯
     6 │   56530491  2023-01-15T00:01:12  2023-01-15T01:47:57  NYPD     Noise
     7 │   56527886  2023-01-15T00:01:22  2023-01-15T00:15:44  NYPD     Blocke
     8 │   56530623  2023-01-15T00:01:23  2023-01-15T01:07:30  NYPD     Illega
   ⋮   │     ⋮                ⋮                    ⋮              ⋮            ⋱
 21482 │   56588474  2023-01-21T23:58:36  2023-01-22T01:02:17  NYPD     Blocke ⋯
 21483 │   56590134  2023-01-21T23:58:43  2023-01-22T01:13:54  NYPD     Noise
 21484 │   56585700  2023-01-21T23:58:48  2023-01-22T01:30:36  NYPD     Noise
 21485 │   56588661  2023-01-21T23:59:10  2023-01-22T02:50:54  NYPD     Noise
 21486 │   56591186  2023-01-21T23:59:12  2023-01-22T06:41:47  NYPD     Illega ⋯
 21487 │   56587053  2023-01-21T23:59:24  2023-01-22T06:24:40  NYPD     Noise
 21488 │   56590382  2023-01-22T00:00:00  2023-01-22T04:29:17  NYPD     Noise
                                               11 columns and 21473 rows omitted
```
…
